FPGA/dump.vcd
$version Generated by VerilatedVcd $end
$timescale 1ps $end
 $scope module TOP $end
  $var wire 1 ` clk $end
  $var wire 1 a rst $end
  $var wire 1 b spi_sclk $end
  $var wire 1 c spi_mosi $end
  $var wire 1 d spi_cs_n $end
  $var wire 1 e matmul_done $end
  $var wire 32 f result [31:0] $end
  $scope module tb_mac_unit $end
   $var wire 32 j WIDTH [31:0] $end
   $var wire 1 g clk $end
   $var wire 1 # rst $end
   $var wire 1 $ start $end
   $var wire 16 % a [15:0] $end
   $var wire 16 & b [15:0] $end
   $var wire 32 ' acc_in [31:0] $end
   $var wire 32 < acc_out [31:0] $end
   $var wire 1 = valid $end
   $scope module dut $end
    $var wire 32 j WIDTH [31:0] $end
    $var wire 1 g clk $end
    $var wire 1 # rst $end
    $var wire 1 $ start $end
    $var wire 16 % a [15:0] $end
    $var wire 16 & b [15:0] $end
    $var wire 32 ' acc_in [31:0] $end
    $var wire 32 < acc_out [31:0] $end
    $var wire 1 = valid $end
    $var wire 16 > a_reg [15:0] $end
    $var wire 16 ? b_reg [15:0] $end
    $var wire 32 @ acc_reg [31:0] $end
    $var wire 1 A stage1_valid $end
    $var wire 32 B mult_result [31:0] $end
    $var wire 32 C acc_stage2 [31:0] $end
    $var wire 1 D stage2_valid $end
    $var wire 32 E result [31:0] $end
    $var wire 1 F stage3_valid $end
   $upscope $end
  $upscope $end
  $scope module verilator_top $end
   $var wire 1 ` clk $end
   $var wire 1 a rst $end
   $var wire 1 b spi_sclk $end
   $var wire 1 c spi_mosi $end
   $var wire 1 d spi_cs_n $end
   $var wire 1 e matmul_done $end
   $var wire 32 f result [31:0] $end
   $scope module dut $end
    $var wire 1 ` clk $end
    $var wire 1 a rst $end
    $var wire 1 b spi_sclk $end
    $var wire 1 c spi_mosi $end
    $var wire 1 d spi_cs_n $end
    $var wire 32 f result [31:0] $end
    $var wire 1 e matmul_done $end
    $var wire 8 G spi_data [7:0] $end
    $var wire 1 H spi_byte_ready $end
    $var wire 1 I token_wr_en $end
    $var wire 1 J weight_wr_en $end
    $var wire 10 K token_wr_addr [9:0] $end
    $var wire 10 L weight_wr_addr [9:0] $end
    $var wire 16 M token_wr_data [15:0] $end
    $var wire 16 N weight_wr_data [15:0] $end
    $var wire 1 O token_rd_en $end
    $var wire 1 O weight_rd_en $end
    $var wire 10 P token_rd_addr [9:0] $end
    $var wire 10 Q weight_rd_addr [9:0] $end
    $var wire 16 h token_rd_data [15:0] $end
    $var wire 16 i weight_rd_data [15:0] $end
    $var wire 1 ( result_wr_en $end
    $var wire 10 ) result_wr_addr [9:0] $end
    $var wire 32 * result_wr_data [31:0] $end
    $var wire 1 + dp_start $end
    $var wire 1 , dp_done $end
    $var wire 32 - dp_result [31:0] $end
    $var wire 10 R dp_weight_base_addr [9:0] $end
    $var wire 1 . mac_start $end
    $var wire 1 / mac_valid $end
    $var wire 16 h mac_a [15:0] $end
    $var wire 16 i mac_b [15:0] $end
    $var wire 32 0 mac_acc_in [31:0] $end
    $var wire 32 1 mac_acc_out [31:0] $end
    $var wire 1 S start_matmul $end
    $scope module cmd_ctrl $end
     $var wire 32 k ADDR_WIDTH [31:0] $end
     $var wire 32 j DATA_WIDTH [31:0] $end
     $var wire 1 ` clk $end
     $var wire 1 a rst $end
     $var wire 8 G spi_data [7:0] $end
     $var wire 1 H spi_byte_ready $end
     $var wire 1 I token_wr_en $end
     $var wire 10 K token_wr_addr [9:0] $end
     $var wire 16 M token_wr_data [15:0] $end
     $var wire 1 J weight_wr_en $end
     $var wire 10 L weight_wr_addr [9:0] $end
     $var wire 16 N weight_wr_data [15:0] $end
     $var wire 1 S start_matmul $end
     $var wire 3 T state [2:0] $end
     $var wire 8 U command [7:0] $end
     $var wire 10 V base_addr [9:0] $end
     $var wire 10 W write_addr [9:0] $end
     $var wire 16 X length [15:0] $end
     $var wire 16 Y remaining [15:0] $end
     $var wire 8 Z data_hi [7:0] $end
    $upscope $end
    $scope module dp $end
     $var wire 32 k ADDR_WIDTH [31:0] $end
     $var wire 32 j DATA_WIDTH [31:0] $end
     $var wire 1 ` clk $end
     $var wire 1 a rst $end
     $var wire 1 + start $end
     $var wire 32 - result [31:0] $end
     $var wire 1 , done $end
     $var wire 1 O token_rd_en $end
     $var wire 10 P token_rd_addr [9:0] $end
     $var wire 16 h token_rd_data [15:0] $end
     $var wire 1 O weight_rd_en $end
     $var wire 10 Q weight_rd_addr [9:0] $end
     $var wire 16 i weight_rd_data [15:0] $end
     $var wire 10 R weight_rd_base_addr [9:0] $end
     $var wire 1 . mac_start $end
     $var wire 16 h mac_a [15:0] $end
     $var wire 16 i mac_b [15:0] $end
     $var wire 32 0 mac_acc_in [31:0] $end
     $var wire 32 1 mac_acc_out [31:0] $end
     $var wire 1 / mac_valid $end
     $var wire 2 [ state [1:0] $end
     $var wire 32 0 accumulator [31:0] $end
     $var wire 10 P index [9:0] $end
     $var wire 10 l VECTOR_LEN [9:0] $end
    $upscope $end
    $scope module mac $end
     $var wire 32 j WIDTH [31:0] $end
     $var wire 1 ` clk $end
     $var wire 1 a rst $end
     $var wire 1 . start $end
     $var wire 16 h a [15:0] $end
     $var wire 16 i b [15:0] $end
     $var wire 32 0 acc_in [31:0] $end
     $var wire 32 1 acc_out [31:0] $end
     $var wire 1 / valid $end
     $var wire 16 2 a_reg [15:0] $end
     $var wire 16 3 b_reg [15:0] $end
     $var wire 32 4 acc_reg [31:0] $end
     $var wire 1 5 stage1_valid $end
     $var wire 32 6 mult_result [31:0] $end
     $var wire 32 7 acc_stage2 [31:0] $end
     $var wire 1 8 stage2_valid $end
     $var wire 32 9 result [31:0] $end
     $var wire 1 : stage3_valid $end
    $upscope $end
    $scope module mm_ctrl $end
     $var wire 32 k ADDR_WIDTH [31:0] $end
     $var wire 32 j DATA_WIDTH [31:0] $end
     $var wire 32 m OUT_SIZE [31:0] $end
     $var wire 32 m VEC_LEN [31:0] $end
     $var wire 1 ` clk $end
     $var wire 1 a rst $end
     $var wire 1 S start $end
     $var wire 1 e done $end
     $var wire 1 + dp_start $end
     $var wire 1 , dp_done $end
     $var wire 10 R dp_weight_base_addr [9:0] $end
     $var wire 32 - dp_result [31:0] $end
     $var wire 1 ( result_wr_en $end
     $var wire 10 ) result_wr_addr [9:0] $end
     $var wire 32 * result_wr_data [31:0] $end
     $var wire 2 ; state [1:0] $end
     $var wire 10 \ output_index [9:0] $end
    $upscope $end
    $scope module result_mem $end
     $var wire 32 k ADDR_WIDTH [31:0] $end
     $var wire 32 n DATA_WIDTH [31:0] $end
     $var wire 1 ` clk $end
     $var wire 1 a rst $end
     $var wire 1 ( wr_en $end
     $var wire 10 ) wr_addr [9:0] $end
     $var wire 32 * wr_data [31:0] $end
     $var wire 1 o rd_en $end
     $var wire 10 p rd_addr [9:0] $end
     $var wire 32 f rd_data [31:0] $end
     $var wire 32 q DEPTH [31:0] $end
    $upscope $end
    $scope module spi_slave_inst $end
     $var wire 32 m DATA_WIDTH [31:0] $end
     $var wire 1 ` clk $end
     $var wire 1 a rst $end
     $var wire 1 b sclk $end
     $var wire 1 c mosi $end
     $var wire 1 d cs_n $end
     $var wire 8 G data_out [7:0] $end
     $var wire 1 H byte_ready $end
     $var wire 3 ] bit_cnt [2:0] $end
     $var wire 8 ^ shift_reg [7:0] $end
     $var wire 1 _ sclk_prev $end
    $upscope $end
    $scope module token_mem $end
     $var wire 32 k ADDR_WIDTH [31:0] $end
     $var wire 32 j DATA_WIDTH [31:0] $end
     $var wire 1 ` clk $end
     $var wire 1 a rst $end
     $var wire 1 I wr_en $end
     $var wire 10 K wr_addr [9:0] $end
     $var wire 16 M wr_data [15:0] $end
     $var wire 1 O rd_en $end
     $var wire 10 P rd_addr [9:0] $end
     $var wire 16 h rd_data [15:0] $end
     $var wire 32 q DEPTH [31:0] $end
    $upscope $end
    $scope module weight_mem $end
     $var wire 32 k ADDR_WIDTH [31:0] $end
     $var wire 32 j DATA_WIDTH [31:0] $end
     $var wire 1 ` clk $end
     $var wire 1 a rst $end
     $var wire 1 J wr_en $end
     $var wire 10 L wr_addr [9:0] $end
     $var wire 16 N wr_data [15:0] $end
     $var wire 1 O rd_en $end
     $var wire 10 Q rd_addr [9:0] $end
     $var wire 16 i rd_data [15:0] $end
     $var wire 32 q DEPTH [31:0] $end
    $upscope $end
   $upscope $end
  $upscope $end
 $upscope $end
$enddefinitions $end


#0
1#
0$
b0000000000000000 %
b0000000000000000 &
b00000000000000000000000000000000 '
0(
b0000000000 )
b00000000000000000000000000000000 *
0+
0,
b00000000000000000000000000000000 -
0.
0/
b00000000000000000000000000000000 0
b00000000000000000000000000000000 1
b0000000000000000 2
b0000000000000000 3
b00000000000000000000000000000000 4
05
b00000000000000000000000000000000 6
b00000000000000000000000000000000 7
08
b00000000000000000000000000000000 9
0:
b00 ;
b00000000000000000000000000000000 <
0=
b0000000000000000 >
b0000000000000000 ?
b00000000000000000000000000000000 @
0A
b00000000000000000000000000000000 B
b00000000000000000000000000000000 C
0D
b00000000000000000000000000000000 E
0F
b00000000 G
0H
0I
0J
b0000000000 K
b0000000000 L
b0000000000000000 M
b0000000000000000 N
0O
b0000000000 P
b0000000000 Q
b0000000000 R
0S
b000 T
b00000000 U
b0000000000 V
b0000000000 W
b0000000000000000 X
b0000000000000000 Y
b00000000 Z
b00 [
b0000000000 \
b000 ]
b00000000 ^
0_
1`
1a
0b
0c
1d
0e
b00000000000000000000000000000000 f
0g
b0000000000000000 h
b0000000000000000 i
b00000000000000000000000000010000 j
b00000000000000000000000000001010 k
b0000001000 l
b00000000000000000000000000001000 m
b00000000000000000000000000100000 n
0o
b0000000000 p
b00000000000000000000010000000000 q
#1
0`
#2
1`
#3
0`
#4
1`
#5
0`
#6
1`
#7
0`
#8
1`
#9
0`
#10
1`
0a
0d
#11
0`
1b
#12
1`
0b
#13
0`
1b
#14
1`
0b
#15
0`
1b
#16
1`
0b
#17
0`
1b
#18
1`
0b
#19
0`
1b
#20
1`
0b
#21
0`
1b
#22
1`
0b
#23
0`
1b
#24
1`
0b
1c
#25
0`
1b
#26
1`
0b
1d
#27
0`
0c
0d
#28
b001 ]
1_
1`
1b
#29
0`
0b
#30
1`
1b
#31
0`
0b
#32
1`
1b
#33
0`
0b
#34
1`
1b
#35
0`
0b
1c
#36
1`
1b
#37
0`
0b
0c
#38
1`
1b
#39
0`
0b
1c
#40
1`
1b
#41
0`
0b
0c
#42
1`
1b
#43
0`
0b
1d
#44
0_
1`
0d
#45
0`
1b
#46
1`
0b
#47
0`
1b
#48
1`
0b
#49
0`
1b
#50
1`
0b
1c
#51
0`
1b
#52
1`
0b
0c
#53
0`
1b
#54
1`
0b
1c
#55
0`
1b
#56
1`
0b
0c
#57
0`
1b
#58
1`
0b
#59
0`
1b
#60
b000 ]
1`
0b
1d
#61
0`
0d
#62
b001 ]
1_
1`
1b
#63
0`
0b
#64
1`
1b
#65
0`
0b
#66
1`
1b
#67
0`
0b
1c
#68
1`
1b
#69
0`
0b
#70
1`
1b
#71
0`
0b
#72
1`
1b
#73
0`
0b
#74
1`
1b
#75
0`
0b
0c
#76
1`
1b
#77
0`
0b
1d
#78
0_
1`
0d
#79
0`
1b
#80
1`
0b
#81
0`
1b
#82
1`
0b
1c
#83
0`
1b
#84
1`
0b
0c
#85
0`
1b
#86
1`
0b
1c
#87
0`
1b
#88
1`
0b
0c
#89
0`
1b
#90
1`
0b
#91
0`
1b
#92
1`
0b
#93
0`
1b
#94
b000 ]
1`
0b
1d
#95
0`
0d
#96
b001 ]
1_
1`
1b
#97
0`
0b
#98
1`
1b
#99
0`
0b
#100
1`
1b
#101
0`
0b
#102
1`
1b
#103
0`
0b
#104
1`
1b
#105
0`
0b
#106
1`
1b
#107
0`
0b
1c
#108
1`
1b
#109
0`
0b
0c
#110
1`
1b
#111
0`
0b
1d
#112
0_
1`
0d
#113
0`
1b
#114
1`
0b
#115
0`
1b
#116
1`
0b
#117
0`
1b
#118
1`
0b
#119
0`
1b
#120
1`
0b
#121
0`
1b
#122
1`
0b
#123
0`
1b
#124
1`
0b
#125
0`
1b
#126
1`
0b
1c
#127
0`
1b
#128
b000 ]
1`
0b
1d
#129
0`
0c
0d
#130
b001 ]
1_
1`
1b
#131
0`
0b
#132
1`
1b
#133
0`
0b
#134
1`
1b
#135
0`
0b
#136
1`
1b
#137
0`
0b
#138
1`
1b
#139
0`
0b
#140
1`
1b
#141
0`
0b
1c
#142
1`
1b
#143
0`
0b
0c
#144
1`
1b
#145
0`
0b
1d
#146
0_
1`
0d
#147
0`
1b
#148
1`
0b
#149
0`
1b
#150
1`
0b
#151
0`
1b
#152
1`
0b
#153
0`
1b
#154
1`
0b
#155
0`
1b
#156
1`
0b
#157
0`
1b
#158
1`
0b
1c
#159
0`
1b
#160
1`
0b
#161
0`
1b
#162
b000 ]
1`
0b
1d
#163
0`
0c
0d
#164
b001 ]
1_
1`
1b
#165
0`
0b
#166
1`
1b
#167
0`
0b
#168
1`
1b
#169
0`
0b
#170
1`
1b
#171
0`
0b
#172
1`
1b
#173
0`
0b
1c
#174
1`
1b
#175
0`
0b
0c
#176
1`
1b
#177
0`
0b
#178
1`
1b
#179
0`
0b
1d
#180
0_
1`
0d
#181
0`
1b
#182
1`
0b
#183
0`
1b
#184
1`
0b
#185
0`
1b
#186
1`
0b
#187
0`
1b
#188
1`
0b
#189
0`
1b
#190
1`
0b
#191
0`
1b
#192
1`
0b
1c
#193
0`
1b
#194
1`
0b
#195
0`
1b
#196
b000 ]
1`
0b
1d
